-- Merging decision tree log ---
manifest
ADDED from D:\WorkY4Term1\DogglersProject\android-basics-kotlin-dogglers-app\app\src\main\AndroidManifest.xml:17:1-52:12
INJECTED from D:\WorkY4Term1\DogglersProject\android-basics-kotlin-dogglers-app\app\src\main\AndroidManifest.xml:17:1-52:12
INJECTED from D:\WorkY4Term1\DogglersProject\android-basics-kotlin-dogglers-app\app\src\main\AndroidManifest.xml:17:1-52:12
INJECTED from D:\WorkY4Term1\DogglersProject\android-basics-kotlin-dogglers-app\app\src\main\AndroidManifest.xml:17:1-52:12
MERGED from [androidx.databinding:viewbinding:4.2.2] C:\Users\SUPAKIT KONGKAM\.gradle\caches\transforms-3\bf63d33301a8dc62014e29bb0490d475\transformed\jetified-viewbinding-4.2.2\AndroidManifest.xml:17:1-22:12
MERGED from [androidx.fragment:fragment-testing:1.4.1] C:\Users\SUPAKIT KONGKAM\.gradle\caches\transforms-3\8501d5454fa25850dfafff3e2a31ef7f\transformed\jetified-fragment-testing-1.4.1\AndroidManifest.xml:17:1-40:12
MERGED from [androidx.fragment:fragment-ktx:1.4.1] C:\Users\SUPAKIT KONGKAM\.gradle\caches\transforms-3\95c839bace59160affd3ddeb8b5cd91d\transformed\jetified-fragment-ktx-1.4.1\AndroidManifest.xml:17:1-24:12
MERGED from [com.google.android.material:material:1.6.0] C:\Users\SUPAKIT KONGKAM\.gradle\caches\transforms-3\9006dbf0e47c1f85e99f50f8096bef7f\transformed\material-1.6.0\AndroidManifest.xml:17:1-26:12
MERGED from [androidx.constraintlayout:constraintlayout:2.1.4] C:\Users\SUPAKIT KONGKAM\.gradle\caches\transforms-3\4b0907a5b0ce2b9511eb6f29effab188\transformed\constraintlayout-2.1.4\AndroidManifest.xml:2:1-11:12
MERGED from [androidx.appcompat:appcompat:1.4.1] C:\Users\SUPAKIT KONGKAM\.gradle\caches\transforms-3\dc9f922775e01302883b6ed5f7c3c7df\transformed\appcompat-1.4.1\AndroidManifest.xml:17:1-24:12
MERGED from [androidx.legacy:legacy-support-v4:1.0.0] C:\Users\SUPAKIT KONGKAM\.gradle\caches\transforms-3\f6733b12fd647a6d7464ff2f0cf0f70e\transformed\legacy-support-v4-1.0.0\AndroidManifest.xml:17:1-22:12
MERGED from [androidx.viewpager2:viewpager2:1.0.0] C:\Users\SUPAKIT KONGKAM\.gradle\caches\transforms-3\79ff62e1130f115362d1038bb13854cb\transformed\jetified-viewpager2-1.0.0\AndroidManifest.xml:17:1-24:12
MERGED from [androidx.fragment:fragment:1.4.1] C:\Users\SUPAKIT KONGKAM\.gradle\caches\transforms-3\820ad5c93ca813fb551f40032ecf88d0\transformed\fragment-1.4.1\AndroidManifest.xml:17:1-24:12
MERGED from [androidx.activity:activity-ktx:1.2.3] C:\Users\SUPAKIT KONGKAM\.gradle\caches\transforms-3\40dceef933f7fb433e3bdc1455190b9e\transformed\jetified-activity-ktx-1.2.3\AndroidManifest.xml:17:1-24:12
MERGED from [androidx.core:core-ktx:1.7.0] C:\Users\SUPAKIT KONGKAM\.gradle\caches\transforms-3\155a51306590e2ca7b6cf2b56762f4a0\transformed\jetified-core-ktx-1.7.0\AndroidManifest.xml:2:1-9:12
MERGED from [androidx.test:core:1.4.0] C:\Users\SUPAKIT KONGKAM\.gradle\caches\transforms-3\314e59102cbeaf24241b7bcb39b01914\transformed\jetified-core-1.4.0\AndroidManifest.xml:17:1-53:12
MERGED from [androidx.activity:activity:1.2.4] C:\Users\SUPAKIT KONGKAM\.gradle\caches\transforms-3\4c5d24437e6bbb3865ff4fa20f00e7a9\transformed\jetified-activity-1.2.4\AndroidManifest.xml:17:1-24:12
MERGED from [androidx.appcompat:appcompat-resources:1.4.1] C:\Users\SUPAKIT KONGKAM\.gradle\caches\transforms-3\b205823b9e2e08f95869e78fa431c981\transformed\jetified-appcompat-resources-1.4.1\AndroidManifest.xml:17:1-24:12
MERGED from [androidx.emoji2:emoji2-views-helper:1.0.0] C:\Users\SUPAKIT KONGKAM\.gradle\caches\transforms-3\f0c6906fef2dbbff438c27a7bf8710e3\transformed\jetified-emoji2-views-helper-1.0.0\AndroidManifest.xml:17:1-24:12
MERGED from [androidx.emoji2:emoji2:1.0.0] C:\Users\SUPAKIT KONGKAM\.gradle\caches\transforms-3\ee8559063ec0f4a389a5d36c623497fa\transformed\jetified-emoji2-1.0.0\AndroidManifest.xml:17:1-37:12
MERGED from [androidx.legacy:legacy-support-core-ui:1.0.0] C:\Users\SUPAKIT KONGKAM\.gradle\caches\transforms-3\8e8bbf6d978fb5ab2c290d8fec604115\transformed\legacy-support-core-ui-1.0.0\AndroidManifest.xml:17:1-22:12
MERGED from [androidx.drawerlayout:drawerlayout:1.1.1] C:\Users\SUPAKIT KONGKAM\.gradle\caches\transforms-3\70fa9d863fec11a9598d1ab330afa381\transformed\drawerlayout-1.1.1\AndroidManifest.xml:17:1-24:12
MERGED from [androidx.coordinatorlayout:coordinatorlayout:1.1.0] C:\Users\SUPAKIT KONGKAM\.gradle\caches\transforms-3\403a6cea0058ceba89a0413fb818a161\transformed\coordinatorlayout-1.1.0\AndroidManifest.xml:17:1-24:12
MERGED from [androidx.dynamicanimation:dynamicanimation:1.0.0] C:\Users\SUPAKIT KONGKAM\.gradle\caches\transforms-3\90bce66ccdc89f7c74b67a1613fe80a5\transformed\dynamicanimation-1.0.0\AndroidManifest.xml:17:1-22:12
MERGED from [androidx.transition:transition:1.2.0] C:\Users\SUPAKIT KONGKAM\.gradle\caches\transforms-3\907938553b74443492d0425fc16bfb83\transformed\transition-1.2.0\AndroidManifest.xml:17:1-24:12
MERGED from [androidx.vectordrawable:vectordrawable-animated:1.1.0] C:\Users\SUPAKIT KONGKAM\.gradle\caches\transforms-3\6052bcd01eee82311f4639e22e0593bc\transformed\vectordrawable-animated-1.1.0\AndroidManifest.xml:17:1-24:12
MERGED from [androidx.vectordrawable:vectordrawable:1.1.0] C:\Users\SUPAKIT KONGKAM\.gradle\caches\transforms-3\74e24cff54db6e98ae86cf0e6b6a9360\transformed\vectordrawable-1.1.0\AndroidManifest.xml:17:1-24:12
MERGED from [androidx.media:media:1.0.0] C:\Users\SUPAKIT KONGKAM\.gradle\caches\transforms-3\c86c98fdb8e3db814acd2e05c8138e4f\transformed\media-1.0.0\AndroidManifest.xml:17:1-22:12
MERGED from [androidx.legacy:legacy-support-core-utils:1.0.0] C:\Users\SUPAKIT KONGKAM\.gradle\caches\transforms-3\b9a4c629a8b4f5e0d4a48f09ef3c67b0\transformed\legacy-support-core-utils-1.0.0\AndroidManifest.xml:17:1-22:12
MERGED from [androidx.recyclerview:recyclerview:1.1.0] C:\Users\SUPAKIT KONGKAM\.gradle\caches\transforms-3\8e128f4fdec601cd54602538e1e8bac9\transformed\recyclerview-1.1.0\AndroidManifest.xml:17:1-24:12
MERGED from [androidx.viewpager:viewpager:1.0.0] C:\Users\SUPAKIT KONGKAM\.gradle\caches\transforms-3\8e50dda410ca2c06046280c54041340b\transformed\viewpager-1.0.0\AndroidManifest.xml:17:1-22:12
MERGED from [androidx.slidingpanelayout:slidingpanelayout:1.0.0] C:\Users\SUPAKIT KONGKAM\.gradle\caches\transforms-3\b536c2b5fb63d43e25a200d882941b72\transformed\slidingpanelayout-1.0.0\AndroidManifest.xml:17:1-22:12
MERGED from [androidx.customview:customview:1.1.0] C:\Users\SUPAKIT KONGKAM\.gradle\caches\transforms-3\c83684a878751c474e885b96dfd0cae0\transformed\customview-1.1.0\AndroidManifest.xml:17:1-24:12
MERGED from [androidx.loader:loader:1.0.0] C:\Users\SUPAKIT KONGKAM\.gradle\caches\transforms-3\41223dc3d55c28228943dba9ac8a921f\transformed\loader-1.0.0\AndroidManifest.xml:17:1-22:12
MERGED from [androidx.swiperefreshlayout:swiperefreshlayout:1.0.0] C:\Users\SUPAKIT KONGKAM\.gradle\caches\transforms-3\ac2c13306d104c5918fe90c174d31ae6\transformed\swiperefreshlayout-1.0.0\AndroidManifest.xml:17:1-22:12
MERGED from [androidx.asynclayoutinflater:asynclayoutinflater:1.0.0] C:\Users\SUPAKIT KONGKAM\.gradle\caches\transforms-3\2e5aecb22fc48c0f759ca339ae676a69\transformed\asynclayoutinflater-1.0.0\AndroidManifest.xml:17:1-22:12
MERGED from [androidx.core:core:1.7.0] C:\Users\SUPAKIT KONGKAM\.gradle\caches\transforms-3\e13a9e1523a0c140a070750b74a27cf9\transformed\core-1.7.0\AndroidManifest.xml:17:1-26:12
MERGED from [androidx.cursoradapter:cursoradapter:1.0.0] C:\Users\SUPAKIT KONGKAM\.gradle\caches\transforms-3\7fee88236f658fdd517a46dc4f3eed2f\transformed\cursoradapter-1.0.0\AndroidManifest.xml:17:1-22:12
MERGED from [androidx.savedstate:savedstate-ktx:1.1.0] C:\Users\SUPAKIT KONGKAM\.gradle\caches\transforms-3\5d5add5d652ff007df96caf50847e089\transformed\jetified-savedstate-ktx-1.1.0\AndroidManifest.xml:17:1-24:12
MERGED from [androidx.lifecycle:lifecycle-viewmodel-savedstate:2.3.1] C:\Users\SUPAKIT KONGKAM\.gradle\caches\transforms-3\8ef5d8f7760437c9663fe00c6a09cf1c\transformed\jetified-lifecycle-viewmodel-savedstate-2.3.1\AndroidManifest.xml:17:1-24:12
MERGED from [androidx.savedstate:savedstate:1.1.0] C:\Users\SUPAKIT KONGKAM\.gradle\caches\transforms-3\9b7a0c263e47bddd23dc946b6bb5da9a\transformed\jetified-savedstate-1.1.0\AndroidManifest.xml:17:1-24:12
MERGED from [androidx.lifecycle:lifecycle-viewmodel-ktx:2.3.1] C:\Users\SUPAKIT KONGKAM\.gradle\caches\transforms-3\9d34c0235d3f1177d371645abf8fed32\transformed\jetified-lifecycle-viewmodel-ktx-2.3.1\AndroidManifest.xml:17:1-24:12
MERGED from [androidx.lifecycle:lifecycle-viewmodel:2.3.1] C:\Users\SUPAKIT KONGKAM\.gradle\caches\transforms-3\9ea675c64dbf474b7ff98a21409bafac\transformed\lifecycle-viewmodel-2.3.1\AndroidManifest.xml:17:1-24:12
MERGED from [androidx.cardview:cardview:1.0.0] C:\Users\SUPAKIT KONGKAM\.gradle\caches\transforms-3\4d45290180b104d2bdb6f5fb638c4fb6\transformed\cardview-1.0.0\AndroidManifest.xml:17:1-22:12
MERGED from [androidx.test:monitor:1.4.0] C:\Users\SUPAKIT KONGKAM\.gradle\caches\transforms-3\b7f6034b78350ed75735483c9d03eaa7\transformed\monitor-1.4.0\AndroidManifest.xml:17:1-24:12
MERGED from [androidx.versionedparcelable:versionedparcelable:1.1.1] C:\Users\SUPAKIT KONGKAM\.gradle\caches\transforms-3\20945ad80c8416b50b1dd09c283dacb3\transformed\versionedparcelable-1.1.1\AndroidManifest.xml:17:1-27:12
MERGED from [androidx.lifecycle:lifecycle-process:2.4.0] C:\Users\SUPAKIT KONGKAM\.gradle\caches\transforms-3\89fb6df37b4fca8dba5ac12d48eda5d9\transformed\jetified-lifecycle-process-2.4.0\AndroidManifest.xml:17:1-37:12
MERGED from [androidx.startup:startup-runtime:1.0.0] C:\Users\SUPAKIT KONGKAM\.gradle\caches\transforms-3\4660b92fb0cdee6424364ce2aff2794b\transformed\jetified-startup-runtime-1.0.0\AndroidManifest.xml:17:1-33:12
MERGED from [androidx.tracing:tracing:1.0.0] C:\Users\SUPAKIT KONGKAM\.gradle\caches\transforms-3\b2dd9210c01d38beae08b2231c0fd359\transformed\jetified-tracing-1.0.0\AndroidManifest.xml:17:1-24:12
MERGED from [androidx.documentfile:documentfile:1.0.0] C:\Users\SUPAKIT KONGKAM\.gradle\caches\transforms-3\7f6ba37db15fe74eb897ec649939d08c\transformed\documentfile-1.0.0\AndroidManifest.xml:17:1-22:12
MERGED from [androidx.localbroadcastmanager:localbroadcastmanager:1.0.0] C:\Users\SUPAKIT KONGKAM\.gradle\caches\transforms-3\e6d2da157bba21df7216952525269ba3\transformed\localbroadcastmanager-1.0.0\AndroidManifest.xml:17:1-22:12
MERGED from [androidx.print:print:1.0.0] C:\Users\SUPAKIT KONGKAM\.gradle\caches\transforms-3\aeedd0c386c5791d284e3bd04d7b9414\transformed\print-1.0.0\AndroidManifest.xml:17:1-22:12
MERGED from [androidx.interpolator:interpolator:1.0.0] C:\Users\SUPAKIT KONGKAM\.gradle\caches\transforms-3\a9b917202f168e771aef8218b8828c34\transformed\interpolator-1.0.0\AndroidManifest.xml:17:1-22:12
MERGED from [androidx.lifecycle:lifecycle-runtime-ktx:2.3.1] C:\Users\SUPAKIT KONGKAM\.gradle\caches\transforms-3\2901740cbaa475a38d17fa4714227941\transformed\jetified-lifecycle-runtime-ktx-2.3.1\AndroidManifest.xml:17:1-24:12
MERGED from [androidx.lifecycle:lifecycle-runtime:2.4.0] C:\Users\SUPAKIT KONGKAM\.gradle\caches\transforms-3\1aba6483a3d1832814518bfb0b9aedfc\transformed\lifecycle-runtime-2.4.0\AndroidManifest.xml:17:1-24:12
MERGED from [androidx.lifecycle:lifecycle-livedata-core-ktx:2.3.1] C:\Users\SUPAKIT KONGKAM\.gradle\caches\transforms-3\4c38fa60d3c93da7434bff383e564fc2\transformed\jetified-lifecycle-livedata-core-ktx-2.3.1\AndroidManifest.xml:17:1-24:12
MERGED from [androidx.lifecycle:lifecycle-livedata:2.0.0] C:\Users\SUPAKIT KONGKAM\.gradle\caches\transforms-3\69ecdc04f7e05096a94faec3382843ae\transformed\lifecycle-livedata-2.0.0\AndroidManifest.xml:17:1-22:12
MERGED from [androidx.lifecycle:lifecycle-livedata-core:2.3.1] C:\Users\SUPAKIT KONGKAM\.gradle\caches\transforms-3\c7aa7cbdd867ae1122ea1695ac3c823f\transformed\lifecycle-livedata-core-2.3.1\AndroidManifest.xml:17:1-24:12
MERGED from [androidx.arch.core:core-runtime:2.1.0] C:\Users\SUPAKIT KONGKAM\.gradle\caches\transforms-3\36d6c5a853cf97682c9749891a3e00e5\transformed\core-runtime-2.1.0\AndroidManifest.xml:17:1-24:12
MERGED from [androidx.annotation:annotation-experimental:1.1.0] C:\Users\SUPAKIT KONGKAM\.gradle\caches\transforms-3\a3a3cf79086834c9d9bbf848c6829ead\transformed\jetified-annotation-experimental-1.1.0\AndroidManifest.xml:17:1-24:12
INJECTED from D:\WorkY4Term1\DogglersProject\android-basics-kotlin-dogglers-app\app\src\main\AndroidManifest.xml:17:1-52:12
INJECTED from D:\WorkY4Term1\DogglersProject\android-basics-kotlin-dogglers-app\app\src\main\AndroidManifest.xml:17:1-52:12
INJECTED from D:\WorkY4Term1\DogglersProject\android-basics-kotlin-dogglers-app\app\src\main\AndroidManifest.xml:17:1-52:12
	package
		ADDED from D:\WorkY4Term1\DogglersProject\android-basics-kotlin-dogglers-app\app\src\main\AndroidManifest.xml:18:5-35
		INJECTED from D:\WorkY4Term1\DogglersProject\android-basics-kotlin-dogglers-app\app\src\main\AndroidManifest.xml
		INJECTED from D:\WorkY4Term1\DogglersProject\android-basics-kotlin-dogglers-app\app\src\main\AndroidManifest.xml
	android:versionName
		INJECTED from D:\WorkY4Term1\DogglersProject\android-basics-kotlin-dogglers-app\app\src\main\AndroidManifest.xml
		ADDED from D:\WorkY4Term1\DogglersProject\android-basics-kotlin-dogglers-app\app\src\main\AndroidManifest.xml:17:1-52:12
		INJECTED from D:\WorkY4Term1\DogglersProject\android-basics-kotlin-dogglers-app\app\src\main\AndroidManifest.xml
	android:versionCode
		INJECTED from D:\WorkY4Term1\DogglersProject\android-basics-kotlin-dogglers-app\app\src\main\AndroidManifest.xml
		ADDED from D:\WorkY4Term1\DogglersProject\android-basics-kotlin-dogglers-app\app\src\main\AndroidManifest.xml:17:1-52:12
		INJECTED from D:\WorkY4Term1\DogglersProject\android-basics-kotlin-dogglers-app\app\src\main\AndroidManifest.xml
	xmlns:android
		ADDED from D:\WorkY4Term1\DogglersProject\android-basics-kotlin-dogglers-app\app\src\main\AndroidManifest.xml:17:11-69
application
ADDED from D:\WorkY4Term1\DogglersProject\android-basics-kotlin-dogglers-app\app\src\main\AndroidManifest.xml:20:5-50:19
MERGED from [androidx.fragment:fragment-testing:1.4.1] C:\Users\SUPAKIT KONGKAM\.gradle\caches\transforms-3\8501d5454fa25850dfafff3e2a31ef7f\transformed\jetified-fragment-testing-1.4.1\AndroidManifest.xml:27:5-38:19
MERGED from [androidx.fragment:fragment-testing:1.4.1] C:\Users\SUPAKIT KONGKAM\.gradle\caches\transforms-3\8501d5454fa25850dfafff3e2a31ef7f\transformed\jetified-fragment-testing-1.4.1\AndroidManifest.xml:27:5-38:19
MERGED from [com.google.android.material:material:1.6.0] C:\Users\SUPAKIT KONGKAM\.gradle\caches\transforms-3\9006dbf0e47c1f85e99f50f8096bef7f\transformed\material-1.6.0\AndroidManifest.xml:24:5-20
MERGED from [com.google.android.material:material:1.6.0] C:\Users\SUPAKIT KONGKAM\.gradle\caches\transforms-3\9006dbf0e47c1f85e99f50f8096bef7f\transformed\material-1.6.0\AndroidManifest.xml:24:5-20
MERGED from [androidx.constraintlayout:constraintlayout:2.1.4] C:\Users\SUPAKIT KONGKAM\.gradle\caches\transforms-3\4b0907a5b0ce2b9511eb6f29effab188\transformed\constraintlayout-2.1.4\AndroidManifest.xml:9:5-20
MERGED from [androidx.constraintlayout:constraintlayout:2.1.4] C:\Users\SUPAKIT KONGKAM\.gradle\caches\transforms-3\4b0907a5b0ce2b9511eb6f29effab188\transformed\constraintlayout-2.1.4\AndroidManifest.xml:9:5-20
MERGED from [androidx.test:core:1.4.0] C:\Users\SUPAKIT KONGKAM\.gradle\caches\transforms-3\314e59102cbeaf24241b7bcb39b01914\transformed\jetified-core-1.4.0\AndroidManifest.xml:26:5-51:19
MERGED from [androidx.test:core:1.4.0] C:\Users\SUPAKIT KONGKAM\.gradle\caches\transforms-3\314e59102cbeaf24241b7bcb39b01914\transformed\jetified-core-1.4.0\AndroidManifest.xml:26:5-51:19
MERGED from [androidx.emoji2:emoji2:1.0.0] C:\Users\SUPAKIT KONGKAM\.gradle\caches\transforms-3\ee8559063ec0f4a389a5d36c623497fa\transformed\jetified-emoji2-1.0.0\AndroidManifest.xml:25:5-35:19
MERGED from [androidx.emoji2:emoji2:1.0.0] C:\Users\SUPAKIT KONGKAM\.gradle\caches\transforms-3\ee8559063ec0f4a389a5d36c623497fa\transformed\jetified-emoji2-1.0.0\AndroidManifest.xml:25:5-35:19
MERGED from [androidx.core:core:1.7.0] C:\Users\SUPAKIT KONGKAM\.gradle\caches\transforms-3\e13a9e1523a0c140a070750b74a27cf9\transformed\core-1.7.0\AndroidManifest.xml:24:5-89
MERGED from [androidx.core:core:1.7.0] C:\Users\SUPAKIT KONGKAM\.gradle\caches\transforms-3\e13a9e1523a0c140a070750b74a27cf9\transformed\core-1.7.0\AndroidManifest.xml:24:5-89
MERGED from [androidx.versionedparcelable:versionedparcelable:1.1.1] C:\Users\SUPAKIT KONGKAM\.gradle\caches\transforms-3\20945ad80c8416b50b1dd09c283dacb3\transformed\versionedparcelable-1.1.1\AndroidManifest.xml:24:5-25:19
MERGED from [androidx.versionedparcelable:versionedparcelable:1.1.1] C:\Users\SUPAKIT KONGKAM\.gradle\caches\transforms-3\20945ad80c8416b50b1dd09c283dacb3\transformed\versionedparcelable-1.1.1\AndroidManifest.xml:24:5-25:19
MERGED from [androidx.lifecycle:lifecycle-process:2.4.0] C:\Users\SUPAKIT KONGKAM\.gradle\caches\transforms-3\89fb6df37b4fca8dba5ac12d48eda5d9\transformed\jetified-lifecycle-process-2.4.0\AndroidManifest.xml:25:5-35:19
MERGED from [androidx.lifecycle:lifecycle-process:2.4.0] C:\Users\SUPAKIT KONGKAM\.gradle\caches\transforms-3\89fb6df37b4fca8dba5ac12d48eda5d9\transformed\jetified-lifecycle-process-2.4.0\AndroidManifest.xml:25:5-35:19
MERGED from [androidx.startup:startup-runtime:1.0.0] C:\Users\SUPAKIT KONGKAM\.gradle\caches\transforms-3\4660b92fb0cdee6424364ce2aff2794b\transformed\jetified-startup-runtime-1.0.0\AndroidManifest.xml:25:5-31:19
MERGED from [androidx.startup:startup-runtime:1.0.0] C:\Users\SUPAKIT KONGKAM\.gradle\caches\transforms-3\4660b92fb0cdee6424364ce2aff2794b\transformed\jetified-startup-runtime-1.0.0\AndroidManifest.xml:25:5-31:19
	android:appComponentFactory
		ADDED from [androidx.core:core:1.7.0] C:\Users\SUPAKIT KONGKAM\.gradle\caches\transforms-3\e13a9e1523a0c140a070750b74a27cf9\transformed\core-1.7.0\AndroidManifest.xml:24:18-86
	android:supportsRtl
		ADDED from D:\WorkY4Term1\DogglersProject\android-basics-kotlin-dogglers-app\app\src\main\AndroidManifest.xml:25:9-35
	android:label
		ADDED from D:\WorkY4Term1\DogglersProject\android-basics-kotlin-dogglers-app\app\src\main\AndroidManifest.xml:23:9-41
	android:roundIcon
		ADDED from D:\WorkY4Term1\DogglersProject\android-basics-kotlin-dogglers-app\app\src\main\AndroidManifest.xml:24:9-54
	android:icon
		ADDED from D:\WorkY4Term1\DogglersProject\android-basics-kotlin-dogglers-app\app\src\main\AndroidManifest.xml:22:9-43
	android:allowBackup
		ADDED from D:\WorkY4Term1\DogglersProject\android-basics-kotlin-dogglers-app\app\src\main\AndroidManifest.xml:21:9-35
	android:theme
		ADDED from D:\WorkY4Term1\DogglersProject\android-basics-kotlin-dogglers-app\app\src\main\AndroidManifest.xml:26:9-46
activity#com.example.dogglers.VerticalListActivity
ADDED from D:\WorkY4Term1\DogglersProject\android-basics-kotlin-dogglers-app\app\src\main\AndroidManifest.xml:27:9-31:20
	android:name
		ADDED from D:\WorkY4Term1\DogglersProject\android-basics-kotlin-dogglers-app\app\src\main\AndroidManifest.xml:27:19-55
meta-data#android.support.PARENT_ACTIVITY
ADDED from D:\WorkY4Term1\DogglersProject\android-basics-kotlin-dogglers-app\app\src\main\AndroidManifest.xml:28:13-30:49
	android:value
		ADDED from D:\WorkY4Term1\DogglersProject\android-basics-kotlin-dogglers-app\app\src\main\AndroidManifest.xml:30:17-46
	android:name
		ADDED from D:\WorkY4Term1\DogglersProject\android-basics-kotlin-dogglers-app\app\src\main\AndroidManifest.xml:29:17-63
activity#com.example.dogglers.HorizontalListActivity
ADDED from D:\WorkY4Term1\DogglersProject\android-basics-kotlin-dogglers-app\app\src\main\AndroidManifest.xml:32:9-36:20
	android:name
		ADDED from D:\WorkY4Term1\DogglersProject\android-basics-kotlin-dogglers-app\app\src\main\AndroidManifest.xml:32:19-57
activity#com.example.dogglers.GridListActivity
ADDED from D:\WorkY4Term1\DogglersProject\android-basics-kotlin-dogglers-app\app\src\main\AndroidManifest.xml:37:9-41:20
	android:name
		ADDED from D:\WorkY4Term1\DogglersProject\android-basics-kotlin-dogglers-app\app\src\main\AndroidManifest.xml:37:19-51
activity#com.example.dogglers.MainActivity
ADDED from D:\WorkY4Term1\DogglersProject\android-basics-kotlin-dogglers-app\app\src\main\AndroidManifest.xml:42:9-49:20
	android:exported
		ADDED from D:\WorkY4Term1\DogglersProject\android-basics-kotlin-dogglers-app\app\src\main\AndroidManifest.xml:43:13-36
	android:name
		ADDED from D:\WorkY4Term1\DogglersProject\android-basics-kotlin-dogglers-app\app\src\main\AndroidManifest.xml:42:19-47
intent-filter#action:name:android.intent.action.MAIN+category:name:android.intent.category.LAUNCHER
ADDED from D:\WorkY4Term1\DogglersProject\android-basics-kotlin-dogglers-app\app\src\main\AndroidManifest.xml:44:13-48:29
action#android.intent.action.MAIN
ADDED from D:\WorkY4Term1\DogglersProject\android-basics-kotlin-dogglers-app\app\src\main\AndroidManifest.xml:45:17-69
	android:name
		ADDED from D:\WorkY4Term1\DogglersProject\android-basics-kotlin-dogglers-app\app\src\main\AndroidManifest.xml:45:25-66
category#android.intent.category.LAUNCHER
ADDED from D:\WorkY4Term1\DogglersProject\android-basics-kotlin-dogglers-app\app\src\main\AndroidManifest.xml:47:17-77
	android:name
		ADDED from D:\WorkY4Term1\DogglersProject\android-basics-kotlin-dogglers-app\app\src\main\AndroidManifest.xml:47:27-74
uses-sdk
INJECTED from D:\WorkY4Term1\DogglersProject\android-basics-kotlin-dogglers-app\app\src\main\AndroidManifest.xml reason: use-sdk injection requested
INJECTED from D:\WorkY4Term1\DogglersProject\android-basics-kotlin-dogglers-app\app\src\main\AndroidManifest.xml
INJECTED from D:\WorkY4Term1\DogglersProject\android-basics-kotlin-dogglers-app\app\src\main\AndroidManifest.xml
MERGED from [androidx.databinding:viewbinding:4.2.2] C:\Users\SUPAKIT KONGKAM\.gradle\caches\transforms-3\bf63d33301a8dc62014e29bb0490d475\transformed\jetified-viewbinding-4.2.2\AndroidManifest.xml:20:5-44
MERGED from [androidx.databinding:viewbinding:4.2.2] C:\Users\SUPAKIT KONGKAM\.gradle\caches\transforms-3\bf63d33301a8dc62014e29bb0490d475\transformed\jetified-viewbinding-4.2.2\AndroidManifest.xml:20:5-44
MERGED from [androidx.fragment:fragment-testing:1.4.1] C:\Users\SUPAKIT KONGKAM\.gradle\caches\transforms-3\8501d5454fa25850dfafff3e2a31ef7f\transformed\jetified-fragment-testing-1.4.1\AndroidManifest.xml:20:5-23:54
MERGED from [androidx.fragment:fragment-testing:1.4.1] C:\Users\SUPAKIT KONGKAM\.gradle\caches\transforms-3\8501d5454fa25850dfafff3e2a31ef7f\transformed\jetified-fragment-testing-1.4.1\AndroidManifest.xml:20:5-23:54
MERGED from [androidx.fragment:fragment-ktx:1.4.1] C:\Users\SUPAKIT KONGKAM\.gradle\caches\transforms-3\95c839bace59160affd3ddeb8b5cd91d\transformed\jetified-fragment-ktx-1.4.1\AndroidManifest.xml:20:5-22:41
MERGED from [androidx.fragment:fragment-ktx:1.4.1] C:\Users\SUPAKIT KONGKAM\.gradle\caches\transforms-3\95c839bace59160affd3ddeb8b5cd91d\transformed\jetified-fragment-ktx-1.4.1\AndroidManifest.xml:20:5-22:41
MERGED from [com.google.android.material:material:1.6.0] C:\Users\SUPAKIT KONGKAM\.gradle\caches\transforms-3\9006dbf0e47c1f85e99f50f8096bef7f\transformed\material-1.6.0\AndroidManifest.xml:20:5-22:41
MERGED from [com.google.android.material:material:1.6.0] C:\Users\SUPAKIT KONGKAM\.gradle\caches\transforms-3\9006dbf0e47c1f85e99f50f8096bef7f\transformed\material-1.6.0\AndroidManifest.xml:20:5-22:41
MERGED from [androidx.constraintlayout:constraintlayout:2.1.4] C:\Users\SUPAKIT KONGKAM\.gradle\caches\transforms-3\4b0907a5b0ce2b9511eb6f29effab188\transformed\constraintlayout-2.1.4\AndroidManifest.xml:5:5-7:41
MERGED from [androidx.constraintlayout:constraintlayout:2.1.4] C:\Users\SUPAKIT KONGKAM\.gradle\caches\transforms-3\4b0907a5b0ce2b9511eb6f29effab188\transformed\constraintlayout-2.1.4\AndroidManifest.xml:5:5-7:41
MERGED from [androidx.appcompat:appcompat:1.4.1] C:\Users\SUPAKIT KONGKAM\.gradle\caches\transforms-3\dc9f922775e01302883b6ed5f7c3c7df\transformed\appcompat-1.4.1\AndroidManifest.xml:20:5-22:41
MERGED from [androidx.appcompat:appcompat:1.4.1] C:\Users\SUPAKIT KONGKAM\.gradle\caches\transforms-3\dc9f922775e01302883b6ed5f7c3c7df\transformed\appcompat-1.4.1\AndroidManifest.xml:20:5-22:41
MERGED from [androidx.legacy:legacy-support-v4:1.0.0] C:\Users\SUPAKIT KONGKAM\.gradle\caches\transforms-3\f6733b12fd647a6d7464ff2f0cf0f70e\transformed\legacy-support-v4-1.0.0\AndroidManifest.xml:20:5-44
MERGED from [androidx.legacy:legacy-support-v4:1.0.0] C:\Users\SUPAKIT KONGKAM\.gradle\caches\transforms-3\f6733b12fd647a6d7464ff2f0cf0f70e\transformed\legacy-support-v4-1.0.0\AndroidManifest.xml:20:5-44
MERGED from [androidx.viewpager2:viewpager2:1.0.0] C:\Users\SUPAKIT KONGKAM\.gradle\caches\transforms-3\79ff62e1130f115362d1038bb13854cb\transformed\jetified-viewpager2-1.0.0\AndroidManifest.xml:20:5-22:41
MERGED from [androidx.viewpager2:viewpager2:1.0.0] C:\Users\SUPAKIT KONGKAM\.gradle\caches\transforms-3\79ff62e1130f115362d1038bb13854cb\transformed\jetified-viewpager2-1.0.0\AndroidManifest.xml:20:5-22:41
MERGED from [androidx.fragment:fragment:1.4.1] C:\Users\SUPAKIT KONGKAM\.gradle\caches\transforms-3\820ad5c93ca813fb551f40032ecf88d0\transformed\fragment-1.4.1\AndroidManifest.xml:20:5-22:41
MERGED from [androidx.fragment:fragment:1.4.1] C:\Users\SUPAKIT KONGKAM\.gradle\caches\transforms-3\820ad5c93ca813fb551f40032ecf88d0\transformed\fragment-1.4.1\AndroidManifest.xml:20:5-22:41
MERGED from [androidx.activity:activity-ktx:1.2.3] C:\Users\SUPAKIT KONGKAM\.gradle\caches\transforms-3\40dceef933f7fb433e3bdc1455190b9e\transformed\jetified-activity-ktx-1.2.3\AndroidManifest.xml:20:5-22:41
MERGED from [androidx.activity:activity-ktx:1.2.3] C:\Users\SUPAKIT KONGKAM\.gradle\caches\transforms-3\40dceef933f7fb433e3bdc1455190b9e\transformed\jetified-activity-ktx-1.2.3\AndroidManifest.xml:20:5-22:41
MERGED from [androidx.core:core-ktx:1.7.0] C:\Users\SUPAKIT KONGKAM\.gradle\caches\transforms-3\155a51306590e2ca7b6cf2b56762f4a0\transformed\jetified-core-ktx-1.7.0\AndroidManifest.xml:5:5-7:41
MERGED from [androidx.core:core-ktx:1.7.0] C:\Users\SUPAKIT KONGKAM\.gradle\caches\transforms-3\155a51306590e2ca7b6cf2b56762f4a0\transformed\jetified-core-ktx-1.7.0\AndroidManifest.xml:5:5-7:41
MERGED from [androidx.test:core:1.4.0] C:\Users\SUPAKIT KONGKAM\.gradle\caches\transforms-3\314e59102cbeaf24241b7bcb39b01914\transformed\jetified-core-1.4.0\AndroidManifest.xml:20:5-22:41
MERGED from [androidx.test:core:1.4.0] C:\Users\SUPAKIT KONGKAM\.gradle\caches\transforms-3\314e59102cbeaf24241b7bcb39b01914\transformed\jetified-core-1.4.0\AndroidManifest.xml:20:5-22:41
MERGED from [androidx.activity:activity:1.2.4] C:\Users\SUPAKIT KONGKAM\.gradle\caches\transforms-3\4c5d24437e6bbb3865ff4fa20f00e7a9\transformed\jetified-activity-1.2.4\AndroidManifest.xml:20:5-22:41
MERGED from [androidx.activity:activity:1.2.4] C:\Users\SUPAKIT KONGKAM\.gradle\caches\transforms-3\4c5d24437e6bbb3865ff4fa20f00e7a9\transformed\jetified-activity-1.2.4\AndroidManifest.xml:20:5-22:41
MERGED from [androidx.appcompat:appcompat-resources:1.4.1] C:\Users\SUPAKIT KONGKAM\.gradle\caches\transforms-3\b205823b9e2e08f95869e78fa431c981\transformed\jetified-appcompat-resources-1.4.1\AndroidManifest.xml:20:5-22:41
MERGED from [androidx.appcompat:appcompat-resources:1.4.1] C:\Users\SUPAKIT KONGKAM\.gradle\caches\transforms-3\b205823b9e2e08f95869e78fa431c981\transformed\jetified-appcompat-resources-1.4.1\AndroidManifest.xml:20:5-22:41
MERGED from [androidx.emoji2:emoji2-views-helper:1.0.0] C:\Users\SUPAKIT KONGKAM\.gradle\caches\transforms-3\f0c6906fef2dbbff438c27a7bf8710e3\transformed\jetified-emoji2-views-helper-1.0.0\AndroidManifest.xml:20:5-22:41
MERGED from [androidx.emoji2:emoji2-views-helper:1.0.0] C:\Users\SUPAKIT KONGKAM\.gradle\caches\transforms-3\f0c6906fef2dbbff438c27a7bf8710e3\transformed\jetified-emoji2-views-helper-1.0.0\AndroidManifest.xml:20:5-22:41
MERGED from [androidx.emoji2:emoji2:1.0.0] C:\Users\SUPAKIT KONGKAM\.gradle\caches\transforms-3\ee8559063ec0f4a389a5d36c623497fa\transformed\jetified-emoji2-1.0.0\AndroidManifest.xml:21:5-23:41
MERGED from [androidx.emoji2:emoji2:1.0.0] C:\Users\SUPAKIT KONGKAM\.gradle\caches\transforms-3\ee8559063ec0f4a389a5d36c623497fa\transformed\jetified-emoji2-1.0.0\AndroidManifest.xml:21:5-23:41
MERGED from [androidx.legacy:legacy-support-core-ui:1.0.0] C:\Users\SUPAKIT KONGKAM\.gradle\caches\transforms-3\8e8bbf6d978fb5ab2c290d8fec604115\transformed\legacy-support-core-ui-1.0.0\AndroidManifest.xml:20:5-44
MERGED from [androidx.legacy:legacy-support-core-ui:1.0.0] C:\Users\SUPAKIT KONGKAM\.gradle\caches\transforms-3\8e8bbf6d978fb5ab2c290d8fec604115\transformed\legacy-support-core-ui-1.0.0\AndroidManifest.xml:20:5-44
MERGED from [androidx.drawerlayout:drawerlayout:1.1.1] C:\Users\SUPAKIT KONGKAM\.gradle\caches\transforms-3\70fa9d863fec11a9598d1ab330afa381\transformed\drawerlayout-1.1.1\AndroidManifest.xml:20:5-22:41
MERGED from [androidx.drawerlayout:drawerlayout:1.1.1] C:\Users\SUPAKIT KONGKAM\.gradle\caches\transforms-3\70fa9d863fec11a9598d1ab330afa381\transformed\drawerlayout-1.1.1\AndroidManifest.xml:20:5-22:41
MERGED from [androidx.coordinatorlayout:coordinatorlayout:1.1.0] C:\Users\SUPAKIT KONGKAM\.gradle\caches\transforms-3\403a6cea0058ceba89a0413fb818a161\transformed\coordinatorlayout-1.1.0\AndroidManifest.xml:20:5-22:41
MERGED from [androidx.coordinatorlayout:coordinatorlayout:1.1.0] C:\Users\SUPAKIT KONGKAM\.gradle\caches\transforms-3\403a6cea0058ceba89a0413fb818a161\transformed\coordinatorlayout-1.1.0\AndroidManifest.xml:20:5-22:41
MERGED from [androidx.dynamicanimation:dynamicanimation:1.0.0] C:\Users\SUPAKIT KONGKAM\.gradle\caches\transforms-3\90bce66ccdc89f7c74b67a1613fe80a5\transformed\dynamicanimation-1.0.0\AndroidManifest.xml:20:5-44
MERGED from [androidx.dynamicanimation:dynamicanimation:1.0.0] C:\Users\SUPAKIT KONGKAM\.gradle\caches\transforms-3\90bce66ccdc89f7c74b67a1613fe80a5\transformed\dynamicanimation-1.0.0\AndroidManifest.xml:20:5-44
MERGED from [androidx.transition:transition:1.2.0] C:\Users\SUPAKIT KONGKAM\.gradle\caches\transforms-3\907938553b74443492d0425fc16bfb83\transformed\transition-1.2.0\AndroidManifest.xml:20:5-22:41
MERGED from [androidx.transition:transition:1.2.0] C:\Users\SUPAKIT KONGKAM\.gradle\caches\transforms-3\907938553b74443492d0425fc16bfb83\transformed\transition-1.2.0\AndroidManifest.xml:20:5-22:41
MERGED from [androidx.vectordrawable:vectordrawable-animated:1.1.0] C:\Users\SUPAKIT KONGKAM\.gradle\caches\transforms-3\6052bcd01eee82311f4639e22e0593bc\transformed\vectordrawable-animated-1.1.0\AndroidManifest.xml:20:5-22:41
MERGED from [androidx.vectordrawable:vectordrawable-animated:1.1.0] C:\Users\SUPAKIT KONGKAM\.gradle\caches\transforms-3\6052bcd01eee82311f4639e22e0593bc\transformed\vectordrawable-animated-1.1.0\AndroidManifest.xml:20:5-22:41
MERGED from [androidx.vectordrawable:vectordrawable:1.1.0] C:\Users\SUPAKIT KONGKAM\.gradle\caches\transforms-3\74e24cff54db6e98ae86cf0e6b6a9360\transformed\vectordrawable-1.1.0\AndroidManifest.xml:20:5-22:41
MERGED from [androidx.vectordrawable:vectordrawable:1.1.0] C:\Users\SUPAKIT KONGKAM\.gradle\caches\transforms-3\74e24cff54db6e98ae86cf0e6b6a9360\transformed\vectordrawable-1.1.0\AndroidManifest.xml:20:5-22:41
MERGED from [androidx.media:media:1.0.0] C:\Users\SUPAKIT KONGKAM\.gradle\caches\transforms-3\c86c98fdb8e3db814acd2e05c8138e4f\transformed\media-1.0.0\AndroidManifest.xml:20:5-44
MERGED from [androidx.media:media:1.0.0] C:\Users\SUPAKIT KONGKAM\.gradle\caches\transforms-3\c86c98fdb8e3db814acd2e05c8138e4f\transformed\media-1.0.0\AndroidManifest.xml:20:5-44
MERGED from [androidx.legacy:legacy-support-core-utils:1.0.0] C:\Users\SUPAKIT KONGKAM\.gradle\caches\transforms-3\b9a4c629a8b4f5e0d4a48f09ef3c67b0\transformed\legacy-support-core-utils-1.0.0\AndroidManifest.xml:20:5-44
MERGED from [androidx.legacy:legacy-support-core-utils:1.0.0] C:\Users\SUPAKIT KONGKAM\.gradle\caches\transforms-3\b9a4c629a8b4f5e0d4a48f09ef3c67b0\transformed\legacy-support-core-utils-1.0.0\AndroidManifest.xml:20:5-44
MERGED from [androidx.recyclerview:recyclerview:1.1.0] C:\Users\SUPAKIT KONGKAM\.gradle\caches\transforms-3\8e128f4fdec601cd54602538e1e8bac9\transformed\recyclerview-1.1.0\AndroidManifest.xml:20:5-22:41
MERGED from [androidx.recyclerview:recyclerview:1.1.0] C:\Users\SUPAKIT KONGKAM\.gradle\caches\transforms-3\8e128f4fdec601cd54602538e1e8bac9\transformed\recyclerview-1.1.0\AndroidManifest.xml:20:5-22:41
MERGED from [androidx.viewpager:viewpager:1.0.0] C:\Users\SUPAKIT KONGKAM\.gradle\caches\transforms-3\8e50dda410ca2c06046280c54041340b\transformed\viewpager-1.0.0\AndroidManifest.xml:20:5-44
MERGED from [androidx.viewpager:viewpager:1.0.0] C:\Users\SUPAKIT KONGKAM\.gradle\caches\transforms-3\8e50dda410ca2c06046280c54041340b\transformed\viewpager-1.0.0\AndroidManifest.xml:20:5-44
MERGED from [androidx.slidingpanelayout:slidingpanelayout:1.0.0] C:\Users\SUPAKIT KONGKAM\.gradle\caches\transforms-3\b536c2b5fb63d43e25a200d882941b72\transformed\slidingpanelayout-1.0.0\AndroidManifest.xml:20:5-44
MERGED from [androidx.slidingpanelayout:slidingpanelayout:1.0.0] C:\Users\SUPAKIT KONGKAM\.gradle\caches\transforms-3\b536c2b5fb63d43e25a200d882941b72\transformed\slidingpanelayout-1.0.0\AndroidManifest.xml:20:5-44
MERGED from [androidx.customview:customview:1.1.0] C:\Users\SUPAKIT KONGKAM\.gradle\caches\transforms-3\c83684a878751c474e885b96dfd0cae0\transformed\customview-1.1.0\AndroidManifest.xml:20:5-22:41
MERGED from [androidx.customview:customview:1.1.0] C:\Users\SUPAKIT KONGKAM\.gradle\caches\transforms-3\c83684a878751c474e885b96dfd0cae0\transformed\customview-1.1.0\AndroidManifest.xml:20:5-22:41
MERGED from [androidx.loader:loader:1.0.0] C:\Users\SUPAKIT KONGKAM\.gradle\caches\transforms-3\41223dc3d55c28228943dba9ac8a921f\transformed\loader-1.0.0\AndroidManifest.xml:20:5-44
MERGED from [androidx.loader:loader:1.0.0] C:\Users\SUPAKIT KONGKAM\.gradle\caches\transforms-3\41223dc3d55c28228943dba9ac8a921f\transformed\loader-1.0.0\AndroidManifest.xml:20:5-44
MERGED from [androidx.swiperefreshlayout:swiperefreshlayout:1.0.0] C:\Users\SUPAKIT KONGKAM\.gradle\caches\transforms-3\ac2c13306d104c5918fe90c174d31ae6\transformed\swiperefreshlayout-1.0.0\AndroidManifest.xml:20:5-44
MERGED from [androidx.swiperefreshlayout:swiperefreshlayout:1.0.0] C:\Users\SUPAKIT KONGKAM\.gradle\caches\transforms-3\ac2c13306d104c5918fe90c174d31ae6\transformed\swiperefreshlayout-1.0.0\AndroidManifest.xml:20:5-44
MERGED from [androidx.asynclayoutinflater:asynclayoutinflater:1.0.0] C:\Users\SUPAKIT KONGKAM\.gradle\caches\transforms-3\2e5aecb22fc48c0f759ca339ae676a69\transformed\asynclayoutinflater-1.0.0\AndroidManifest.xml:20:5-44
MERGED from [androidx.asynclayoutinflater:asynclayoutinflater:1.0.0] C:\Users\SUPAKIT KONGKAM\.gradle\caches\transforms-3\2e5aecb22fc48c0f759ca339ae676a69\transformed\asynclayoutinflater-1.0.0\AndroidManifest.xml:20:5-44
MERGED from [androidx.core:core:1.7.0] C:\Users\SUPAKIT KONGKAM\.gradle\caches\transforms-3\e13a9e1523a0c140a070750b74a27cf9\transformed\core-1.7.0\AndroidManifest.xml:20:5-22:41
MERGED from [androidx.core:core:1.7.0] C:\Users\SUPAKIT KONGKAM\.gradle\caches\transforms-3\e13a9e1523a0c140a070750b74a27cf9\transformed\core-1.7.0\AndroidManifest.xml:20:5-22:41
MERGED from [androidx.cursoradapter:cursoradapter:1.0.0] C:\Users\SUPAKIT KONGKAM\.gradle\caches\transforms-3\7fee88236f658fdd517a46dc4f3eed2f\transformed\cursoradapter-1.0.0\AndroidManifest.xml:20:5-44
MERGED from [androidx.cursoradapter:cursoradapter:1.0.0] C:\Users\SUPAKIT KONGKAM\.gradle\caches\transforms-3\7fee88236f658fdd517a46dc4f3eed2f\transformed\cursoradapter-1.0.0\AndroidManifest.xml:20:5-44
MERGED from [androidx.savedstate:savedstate-ktx:1.1.0] C:\Users\SUPAKIT KONGKAM\.gradle\caches\transforms-3\5d5add5d652ff007df96caf50847e089\transformed\jetified-savedstate-ktx-1.1.0\AndroidManifest.xml:20:5-22:41
MERGED from [androidx.savedstate:savedstate-ktx:1.1.0] C:\Users\SUPAKIT KONGKAM\.gradle\caches\transforms-3\5d5add5d652ff007df96caf50847e089\transformed\jetified-savedstate-ktx-1.1.0\AndroidManifest.xml:20:5-22:41
MERGED from [androidx.lifecycle:lifecycle-viewmodel-savedstate:2.3.1] C:\Users\SUPAKIT KONGKAM\.gradle\caches\transforms-3\8ef5d8f7760437c9663fe00c6a09cf1c\transformed\jetified-lifecycle-viewmodel-savedstate-2.3.1\AndroidManifest.xml:20:5-22:41
MERGED from [androidx.lifecycle:lifecycle-viewmodel-savedstate:2.3.1] C:\Users\SUPAKIT KONGKAM\.gradle\caches\transforms-3\8ef5d8f7760437c9663fe00c6a09cf1c\transformed\jetified-lifecycle-viewmodel-savedstate-2.3.1\AndroidManifest.xml:20:5-22:41
MERGED from [androidx.savedstate:savedstate:1.1.0] C:\Users\SUPAKIT KONGKAM\.gradle\caches\transforms-3\9b7a0c263e47bddd23dc946b6bb5da9a\transformed\jetified-savedstate-1.1.0\AndroidManifest.xml:20:5-22:41
MERGED from [androidx.savedstate:savedstate:1.1.0] C:\Users\SUPAKIT KONGKAM\.gradle\caches\transforms-3\9b7a0c263e47bddd23dc946b6bb5da9a\transformed\jetified-savedstate-1.1.0\AndroidManifest.xml:20:5-22:41
MERGED from [androidx.lifecycle:lifecycle-viewmodel-ktx:2.3.1] C:\Users\SUPAKIT KONGKAM\.gradle\caches\transforms-3\9d34c0235d3f1177d371645abf8fed32\transformed\jetified-lifecycle-viewmodel-ktx-2.3.1\AndroidManifest.xml:20:5-22:41
MERGED from [androidx.lifecycle:lifecycle-viewmodel-ktx:2.3.1] C:\Users\SUPAKIT KONGKAM\.gradle\caches\transforms-3\9d34c0235d3f1177d371645abf8fed32\transformed\jetified-lifecycle-viewmodel-ktx-2.3.1\AndroidManifest.xml:20:5-22:41
MERGED from [androidx.lifecycle:lifecycle-viewmodel:2.3.1] C:\Users\SUPAKIT KONGKAM\.gradle\caches\transforms-3\9ea675c64dbf474b7ff98a21409bafac\transformed\lifecycle-viewmodel-2.3.1\AndroidManifest.xml:20:5-22:41
MERGED from [androidx.lifecycle:lifecycle-viewmodel:2.3.1] C:\Users\SUPAKIT KONGKAM\.gradle\caches\transforms-3\9ea675c64dbf474b7ff98a21409bafac\transformed\lifecycle-viewmodel-2.3.1\AndroidManifest.xml:20:5-22:41
MERGED from [androidx.cardview:cardview:1.0.0] C:\Users\SUPAKIT KONGKAM\.gradle\caches\transforms-3\4d45290180b104d2bdb6f5fb638c4fb6\transformed\cardview-1.0.0\AndroidManifest.xml:20:5-44
MERGED from [androidx.cardview:cardview:1.0.0] C:\Users\SUPAKIT KONGKAM\.gradle\caches\transforms-3\4d45290180b104d2bdb6f5fb638c4fb6\transformed\cardview-1.0.0\AndroidManifest.xml:20:5-44
MERGED from [androidx.test:monitor:1.4.0] C:\Users\SUPAKIT KONGKAM\.gradle\caches\transforms-3\b7f6034b78350ed75735483c9d03eaa7\transformed\monitor-1.4.0\AndroidManifest.xml:20:5-22:41
MERGED from [androidx.test:monitor:1.4.0] C:\Users\SUPAKIT KONGKAM\.gradle\caches\transforms-3\b7f6034b78350ed75735483c9d03eaa7\transformed\monitor-1.4.0\AndroidManifest.xml:20:5-22:41
MERGED from [androidx.versionedparcelable:versionedparcelable:1.1.1] C:\Users\SUPAKIT KONGKAM\.gradle\caches\transforms-3\20945ad80c8416b50b1dd09c283dacb3\transformed\versionedparcelable-1.1.1\AndroidManifest.xml:20:5-22:41
MERGED from [androidx.versionedparcelable:versionedparcelable:1.1.1] C:\Users\SUPAKIT KONGKAM\.gradle\caches\transforms-3\20945ad80c8416b50b1dd09c283dacb3\transformed\versionedparcelable-1.1.1\AndroidManifest.xml:20:5-22:41
MERGED from [androidx.lifecycle:lifecycle-process:2.4.0] C:\Users\SUPAKIT KONGKAM\.gradle\caches\transforms-3\89fb6df37b4fca8dba5ac12d48eda5d9\transformed\jetified-lifecycle-process-2.4.0\AndroidManifest.xml:21:5-23:41
MERGED from [androidx.lifecycle:lifecycle-process:2.4.0] C:\Users\SUPAKIT KONGKAM\.gradle\caches\transforms-3\89fb6df37b4fca8dba5ac12d48eda5d9\transformed\jetified-lifecycle-process-2.4.0\AndroidManifest.xml:21:5-23:41
MERGED from [androidx.startup:startup-runtime:1.0.0] C:\Users\SUPAKIT KONGKAM\.gradle\caches\transforms-3\4660b92fb0cdee6424364ce2aff2794b\transformed\jetified-startup-runtime-1.0.0\AndroidManifest.xml:21:5-23:41
MERGED from [androidx.startup:startup-runtime:1.0.0] C:\Users\SUPAKIT KONGKAM\.gradle\caches\transforms-3\4660b92fb0cdee6424364ce2aff2794b\transformed\jetified-startup-runtime-1.0.0\AndroidManifest.xml:21:5-23:41
MERGED from [androidx.tracing:tracing:1.0.0] C:\Users\SUPAKIT KONGKAM\.gradle\caches\transforms-3\b2dd9210c01d38beae08b2231c0fd359\transformed\jetified-tracing-1.0.0\AndroidManifest.xml:20:5-22:41
MERGED from [androidx.tracing:tracing:1.0.0] C:\Users\SUPAKIT KONGKAM\.gradle\caches\transforms-3\b2dd9210c01d38beae08b2231c0fd359\transformed\jetified-tracing-1.0.0\AndroidManifest.xml:20:5-22:41
MERGED from [androidx.documentfile:documentfile:1.0.0] C:\Users\SUPAKIT KONGKAM\.gradle\caches\transforms-3\7f6ba37db15fe74eb897ec649939d08c\transformed\documentfile-1.0.0\AndroidManifest.xml:20:5-44
MERGED from [androidx.documentfile:documentfile:1.0.0] C:\Users\SUPAKIT KONGKAM\.gradle\caches\transforms-3\7f6ba37db15fe74eb897ec649939d08c\transformed\documentfile-1.0.0\AndroidManifest.xml:20:5-44
MERGED from [androidx.localbroadcastmanager:localbroadcastmanager:1.0.0] C:\Users\SUPAKIT KONGKAM\.gradle\caches\transforms-3\e6d2da157bba21df7216952525269ba3\transformed\localbroadcastmanager-1.0.0\AndroidManifest.xml:20:5-44
MERGED from [androidx.localbroadcastmanager:localbroadcastmanager:1.0.0] C:\Users\SUPAKIT KONGKAM\.gradle\caches\transforms-3\e6d2da157bba21df7216952525269ba3\transformed\localbroadcastmanager-1.0.0\AndroidManifest.xml:20:5-44
MERGED from [androidx.print:print:1.0.0] C:\Users\SUPAKIT KONGKAM\.gradle\caches\transforms-3\aeedd0c386c5791d284e3bd04d7b9414\transformed\print-1.0.0\AndroidManifest.xml:20:5-44
MERGED from [androidx.print:print:1.0.0] C:\Users\SUPAKIT KONGKAM\.gradle\caches\transforms-3\aeedd0c386c5791d284e3bd04d7b9414\transformed\print-1.0.0\AndroidManifest.xml:20:5-44
MERGED from [androidx.interpolator:interpolator:1.0.0] C:\Users\SUPAKIT KONGKAM\.gradle\caches\transforms-3\a9b917202f168e771aef8218b8828c34\transformed\interpolator-1.0.0\AndroidManifest.xml:20:5-44
MERGED from [androidx.interpolator:interpolator:1.0.0] C:\Users\SUPAKIT KONGKAM\.gradle\caches\transforms-3\a9b917202f168e771aef8218b8828c34\transformed\interpolator-1.0.0\AndroidManifest.xml:20:5-44
MERGED from [androidx.lifecycle:lifecycle-runtime-ktx:2.3.1] C:\Users\SUPAKIT KONGKAM\.gradle\caches\transforms-3\2901740cbaa475a38d17fa4714227941\transformed\jetified-lifecycle-runtime-ktx-2.3.1\AndroidManifest.xml:20:5-22:41
MERGED from [androidx.lifecycle:lifecycle-runtime-ktx:2.3.1] C:\Users\SUPAKIT KONGKAM\.gradle\caches\transforms-3\2901740cbaa475a38d17fa4714227941\transformed\jetified-lifecycle-runtime-ktx-2.3.1\AndroidManifest.xml:20:5-22:41
MERGED from [androidx.lifecycle:lifecycle-runtime:2.4.0] C:\Users\SUPAKIT KONGKAM\.gradle\caches\transforms-3\1aba6483a3d1832814518bfb0b9aedfc\transformed\lifecycle-runtime-2.4.0\AndroidManifest.xml:20:5-22:41
MERGED from [androidx.lifecycle:lifecycle-runtime:2.4.0] C:\Users\SUPAKIT KONGKAM\.gradle\caches\transforms-3\1aba6483a3d1832814518bfb0b9aedfc\transformed\lifecycle-runtime-2.4.0\AndroidManifest.xml:20:5-22:41
MERGED from [androidx.lifecycle:lifecycle-livedata-core-ktx:2.3.1] C:\Users\SUPAKIT KONGKAM\.gradle\caches\transforms-3\4c38fa60d3c93da7434bff383e564fc2\transformed\jetified-lifecycle-livedata-core-ktx-2.3.1\AndroidManifest.xml:20:5-22:41
MERGED from [androidx.lifecycle:lifecycle-livedata-core-ktx:2.3.1] C:\Users\SUPAKIT KONGKAM\.gradle\caches\transforms-3\4c38fa60d3c93da7434bff383e564fc2\transformed\jetified-lifecycle-livedata-core-ktx-2.3.1\AndroidManifest.xml:20:5-22:41
MERGED from [androidx.lifecycle:lifecycle-livedata:2.0.0] C:\Users\SUPAKIT KONGKAM\.gradle\caches\transforms-3\69ecdc04f7e05096a94faec3382843ae\transformed\lifecycle-livedata-2.0.0\AndroidManifest.xml:20:5-44
MERGED from [androidx.lifecycle:lifecycle-livedata:2.0.0] C:\Users\SUPAKIT KONGKAM\.gradle\caches\transforms-3\69ecdc04f7e05096a94faec3382843ae\transformed\lifecycle-livedata-2.0.0\AndroidManifest.xml:20:5-44
MERGED from [androidx.lifecycle:lifecycle-livedata-core:2.3.1] C:\Users\SUPAKIT KONGKAM\.gradle\caches\transforms-3\c7aa7cbdd867ae1122ea1695ac3c823f\transformed\lifecycle-livedata-core-2.3.1\AndroidManifest.xml:20:5-22:41
MERGED from [androidx.lifecycle:lifecycle-livedata-core:2.3.1] C:\Users\SUPAKIT KONGKAM\.gradle\caches\transforms-3\c7aa7cbdd867ae1122ea1695ac3c823f\transformed\lifecycle-livedata-core-2.3.1\AndroidManifest.xml:20:5-22:41
MERGED from [androidx.arch.core:core-runtime:2.1.0] C:\Users\SUPAKIT KONGKAM\.gradle\caches\transforms-3\36d6c5a853cf97682c9749891a3e00e5\transformed\core-runtime-2.1.0\AndroidManifest.xml:20:5-22:41
MERGED from [androidx.arch.core:core-runtime:2.1.0] C:\Users\SUPAKIT KONGKAM\.gradle\caches\transforms-3\36d6c5a853cf97682c9749891a3e00e5\transformed\core-runtime-2.1.0\AndroidManifest.xml:20:5-22:41
MERGED from [androidx.annotation:annotation-experimental:1.1.0] C:\Users\SUPAKIT KONGKAM\.gradle\caches\transforms-3\a3a3cf79086834c9d9bbf848c6829ead\transformed\jetified-annotation-experimental-1.1.0\AndroidManifest.xml:20:5-22:41
MERGED from [androidx.annotation:annotation-experimental:1.1.0] C:\Users\SUPAKIT KONGKAM\.gradle\caches\transforms-3\a3a3cf79086834c9d9bbf848c6829ead\transformed\jetified-annotation-experimental-1.1.0\AndroidManifest.xml:20:5-22:41
INJECTED from D:\WorkY4Term1\DogglersProject\android-basics-kotlin-dogglers-app\app\src\main\AndroidManifest.xml
INJECTED from D:\WorkY4Term1\DogglersProject\android-basics-kotlin-dogglers-app\app\src\main\AndroidManifest.xml
	tools:overrideLibrary
		ADDED from [androidx.fragment:fragment-testing:1.4.1] C:\Users\SUPAKIT KONGKAM\.gradle\caches\transforms-3\8501d5454fa25850dfafff3e2a31ef7f\transformed\jetified-fragment-testing-1.4.1\AndroidManifest.xml:23:9-51
	android:targetSdkVersion
		INJECTED from D:\WorkY4Term1\DogglersProject\android-basics-kotlin-dogglers-app\app\src\main\AndroidManifest.xml
		ADDED from D:\WorkY4Term1\DogglersProject\android-basics-kotlin-dogglers-app\app\src\main\AndroidManifest.xml
		INJECTED from D:\WorkY4Term1\DogglersProject\android-basics-kotlin-dogglers-app\app\src\main\AndroidManifest.xml
	android:minSdkVersion
		INJECTED from D:\WorkY4Term1\DogglersProject\android-basics-kotlin-dogglers-app\app\src\main\AndroidManifest.xml
		ADDED from D:\WorkY4Term1\DogglersProject\android-basics-kotlin-dogglers-app\app\src\main\AndroidManifest.xml
		INJECTED from D:\WorkY4Term1\DogglersProject\android-basics-kotlin-dogglers-app\app\src\main\AndroidManifest.xml
uses-permission#android.permission.REORDER_TASKS
ADDED from [androidx.fragment:fragment-testing:1.4.1] C:\Users\SUPAKIT KONGKAM\.gradle\caches\transforms-3\8501d5454fa25850dfafff3e2a31ef7f\transformed\jetified-fragment-testing-1.4.1\AndroidManifest.xml:25:5-72
MERGED from [androidx.test:core:1.4.0] C:\Users\SUPAKIT KONGKAM\.gradle\caches\transforms-3\314e59102cbeaf24241b7bcb39b01914\transformed\jetified-core-1.4.0\AndroidManifest.xml:24:5-72
MERGED from [androidx.test:core:1.4.0] C:\Users\SUPAKIT KONGKAM\.gradle\caches\transforms-3\314e59102cbeaf24241b7bcb39b01914\transformed\jetified-core-1.4.0\AndroidManifest.xml:24:5-72
	android:name
		ADDED from [androidx.fragment:fragment-testing:1.4.1] C:\Users\SUPAKIT KONGKAM\.gradle\caches\transforms-3\8501d5454fa25850dfafff3e2a31ef7f\transformed\jetified-fragment-testing-1.4.1\AndroidManifest.xml:25:22-69
activity#androidx.fragment.app.testing.FragmentScenario$EmptyFragmentActivity
ADDED from [androidx.fragment:fragment-testing:1.4.1] C:\Users\SUPAKIT KONGKAM\.gradle\caches\transforms-3\8501d5454fa25850dfafff3e2a31ef7f\transformed\jetified-fragment-testing-1.4.1\AndroidManifest.xml:28:9-37:20
	android:multiprocess
		ADDED from [androidx.fragment:fragment-testing:1.4.1] C:\Users\SUPAKIT KONGKAM\.gradle\caches\transforms-3\8501d5454fa25850dfafff3e2a31ef7f\transformed\jetified-fragment-testing-1.4.1\AndroidManifest.xml:31:13-40
	android:exported
		ADDED from [androidx.fragment:fragment-testing:1.4.1] C:\Users\SUPAKIT KONGKAM\.gradle\caches\transforms-3\8501d5454fa25850dfafff3e2a31ef7f\transformed\jetified-fragment-testing-1.4.1\AndroidManifest.xml:30:13-36
	android:theme
		ADDED from [androidx.fragment:fragment-testing:1.4.1] C:\Users\SUPAKIT KONGKAM\.gradle\caches\transforms-3\8501d5454fa25850dfafff3e2a31ef7f\transformed\jetified-fragment-testing-1.4.1\AndroidManifest.xml:33:13-78
	android:taskAffinity
		ADDED from [androidx.fragment:fragment-testing:1.4.1] C:\Users\SUPAKIT KONGKAM\.gradle\caches\transforms-3\8501d5454fa25850dfafff3e2a31ef7f\transformed\jetified-fragment-testing-1.4.1\AndroidManifest.xml:32:13-36
	android:name
		ADDED from [androidx.fragment:fragment-testing:1.4.1] C:\Users\SUPAKIT KONGKAM\.gradle\caches\transforms-3\8501d5454fa25850dfafff3e2a31ef7f\transformed\jetified-fragment-testing-1.4.1\AndroidManifest.xml:29:13-96
intent-filter#action:name:android.intent.action.MAIN
ADDED from [androidx.fragment:fragment-testing:1.4.1] C:\Users\SUPAKIT KONGKAM\.gradle\caches\transforms-3\8501d5454fa25850dfafff3e2a31ef7f\transformed\jetified-fragment-testing-1.4.1\AndroidManifest.xml:34:13-36:29
activity#androidx.test.core.app.InstrumentationActivityInvoker$BootstrapActivity
ADDED from [androidx.test:core:1.4.0] C:\Users\SUPAKIT KONGKAM\.gradle\caches\transforms-3\314e59102cbeaf24241b7bcb39b01914\transformed\jetified-core-1.4.0\AndroidManifest.xml:27:9-34:20
	android:exported
		ADDED from [androidx.test:core:1.4.0] C:\Users\SUPAKIT KONGKAM\.gradle\caches\transforms-3\314e59102cbeaf24241b7bcb39b01914\transformed\jetified-core-1.4.0\AndroidManifest.xml:29:13-36
	android:theme
		ADDED from [androidx.test:core:1.4.0] C:\Users\SUPAKIT KONGKAM\.gradle\caches\transforms-3\314e59102cbeaf24241b7bcb39b01914\transformed\jetified-core-1.4.0\AndroidManifest.xml:30:13-49
	android:name
		ADDED from [androidx.test:core:1.4.0] C:\Users\SUPAKIT KONGKAM\.gradle\caches\transforms-3\314e59102cbeaf24241b7bcb39b01914\transformed\jetified-core-1.4.0\AndroidManifest.xml:28:13-99
activity#androidx.test.core.app.InstrumentationActivityInvoker$EmptyActivity
ADDED from [androidx.test:core:1.4.0] C:\Users\SUPAKIT KONGKAM\.gradle\caches\transforms-3\314e59102cbeaf24241b7bcb39b01914\transformed\jetified-core-1.4.0\AndroidManifest.xml:35:9-42:20
	android:exported
		ADDED from [androidx.test:core:1.4.0] C:\Users\SUPAKIT KONGKAM\.gradle\caches\transforms-3\314e59102cbeaf24241b7bcb39b01914\transformed\jetified-core-1.4.0\AndroidManifest.xml:37:13-36
	android:theme
		ADDED from [androidx.test:core:1.4.0] C:\Users\SUPAKIT KONGKAM\.gradle\caches\transforms-3\314e59102cbeaf24241b7bcb39b01914\transformed\jetified-core-1.4.0\AndroidManifest.xml:38:13-49
	android:name
		ADDED from [androidx.test:core:1.4.0] C:\Users\SUPAKIT KONGKAM\.gradle\caches\transforms-3\314e59102cbeaf24241b7bcb39b01914\transformed\jetified-core-1.4.0\AndroidManifest.xml:36:13-95
activity#androidx.test.core.app.InstrumentationActivityInvoker$EmptyFloatingActivity
ADDED from [androidx.test:core:1.4.0] C:\Users\SUPAKIT KONGKAM\.gradle\caches\transforms-3\314e59102cbeaf24241b7bcb39b01914\transformed\jetified-core-1.4.0\AndroidManifest.xml:43:9-50:20
	android:exported
		ADDED from [androidx.test:core:1.4.0] C:\Users\SUPAKIT KONGKAM\.gradle\caches\transforms-3\314e59102cbeaf24241b7bcb39b01914\transformed\jetified-core-1.4.0\AndroidManifest.xml:45:13-36
	android:theme
		ADDED from [androidx.test:core:1.4.0] C:\Users\SUPAKIT KONGKAM\.gradle\caches\transforms-3\314e59102cbeaf24241b7bcb39b01914\transformed\jetified-core-1.4.0\AndroidManifest.xml:46:13-56
	android:name
		ADDED from [androidx.test:core:1.4.0] C:\Users\SUPAKIT KONGKAM\.gradle\caches\transforms-3\314e59102cbeaf24241b7bcb39b01914\transformed\jetified-core-1.4.0\AndroidManifest.xml:44:13-103
provider#androidx.startup.InitializationProvider
ADDED from [androidx.emoji2:emoji2:1.0.0] C:\Users\SUPAKIT KONGKAM\.gradle\caches\transforms-3\ee8559063ec0f4a389a5d36c623497fa\transformed\jetified-emoji2-1.0.0\AndroidManifest.xml:26:9-34:20
MERGED from [androidx.lifecycle:lifecycle-process:2.4.0] C:\Users\SUPAKIT KONGKAM\.gradle\caches\transforms-3\89fb6df37b4fca8dba5ac12d48eda5d9\transformed\jetified-lifecycle-process-2.4.0\AndroidManifest.xml:26:9-34:20
MERGED from [androidx.lifecycle:lifecycle-process:2.4.0] C:\Users\SUPAKIT KONGKAM\.gradle\caches\transforms-3\89fb6df37b4fca8dba5ac12d48eda5d9\transformed\jetified-lifecycle-process-2.4.0\AndroidManifest.xml:26:9-34:20
MERGED from [androidx.startup:startup-runtime:1.0.0] C:\Users\SUPAKIT KONGKAM\.gradle\caches\transforms-3\4660b92fb0cdee6424364ce2aff2794b\transformed\jetified-startup-runtime-1.0.0\AndroidManifest.xml:26:9-30:34
MERGED from [androidx.startup:startup-runtime:1.0.0] C:\Users\SUPAKIT KONGKAM\.gradle\caches\transforms-3\4660b92fb0cdee6424364ce2aff2794b\transformed\jetified-startup-runtime-1.0.0\AndroidManifest.xml:26:9-30:34
	tools:node
		ADDED from [androidx.emoji2:emoji2:1.0.0] C:\Users\SUPAKIT KONGKAM\.gradle\caches\transforms-3\ee8559063ec0f4a389a5d36c623497fa\transformed\jetified-emoji2-1.0.0\AndroidManifest.xml:30:13-31
	android:authorities
		ADDED from [androidx.emoji2:emoji2:1.0.0] C:\Users\SUPAKIT KONGKAM\.gradle\caches\transforms-3\ee8559063ec0f4a389a5d36c623497fa\transformed\jetified-emoji2-1.0.0\AndroidManifest.xml:28:13-68
	android:exported
		ADDED from [androidx.emoji2:emoji2:1.0.0] C:\Users\SUPAKIT KONGKAM\.gradle\caches\transforms-3\ee8559063ec0f4a389a5d36c623497fa\transformed\jetified-emoji2-1.0.0\AndroidManifest.xml:29:13-37
	android:name
		ADDED from [androidx.emoji2:emoji2:1.0.0] C:\Users\SUPAKIT KONGKAM\.gradle\caches\transforms-3\ee8559063ec0f4a389a5d36c623497fa\transformed\jetified-emoji2-1.0.0\AndroidManifest.xml:27:13-67
meta-data#androidx.emoji2.text.EmojiCompatInitializer
ADDED from [androidx.emoji2:emoji2:1.0.0] C:\Users\SUPAKIT KONGKAM\.gradle\caches\transforms-3\ee8559063ec0f4a389a5d36c623497fa\transformed\jetified-emoji2-1.0.0\AndroidManifest.xml:31:13-33:52
	android:value
		ADDED from [androidx.emoji2:emoji2:1.0.0] C:\Users\SUPAKIT KONGKAM\.gradle\caches\transforms-3\ee8559063ec0f4a389a5d36c623497fa\transformed\jetified-emoji2-1.0.0\AndroidManifest.xml:33:17-49
	android:name
		ADDED from [androidx.emoji2:emoji2:1.0.0] C:\Users\SUPAKIT KONGKAM\.gradle\caches\transforms-3\ee8559063ec0f4a389a5d36c623497fa\transformed\jetified-emoji2-1.0.0\AndroidManifest.xml:32:17-75
meta-data#androidx.lifecycle.ProcessLifecycleInitializer
ADDED from [androidx.lifecycle:lifecycle-process:2.4.0] C:\Users\SUPAKIT KONGKAM\.gradle\caches\transforms-3\89fb6df37b4fca8dba5ac12d48eda5d9\transformed\jetified-lifecycle-process-2.4.0\AndroidManifest.xml:31:13-33:52
	android:value
		ADDED from [androidx.lifecycle:lifecycle-process:2.4.0] C:\Users\SUPAKIT KONGKAM\.gradle\caches\transforms-3\89fb6df37b4fca8dba5ac12d48eda5d9\transformed\jetified-lifecycle-process-2.4.0\AndroidManifest.xml:33:17-49
	android:name
		ADDED from [androidx.lifecycle:lifecycle-process:2.4.0] C:\Users\SUPAKIT KONGKAM\.gradle\caches\transforms-3\89fb6df37b4fca8dba5ac12d48eda5d9\transformed\jetified-lifecycle-process-2.4.0\AndroidManifest.xml:32:17-78
